module gitlab.com/kuldeep29/service

go 1.17

require (
	github.com/google/uuid v1.3.0
	github.com/gorilla/context v1.1.1
	github.com/julienschmidt/httprouter v1.3.0
	github.com/justinas/alice v1.2.0
	github.com/pact-foundation/pact-go v1.6.6
	github.com/stretchr/testify v1.7.0
	go.mongodb.org/mongo-driver v1.8.0
	go.uber.org/zap v1.19.1
	gopkg.in/go-playground/assert.v1 v1.2.1
)

require (
	github.com/davecgh/go-spew v1.1.1 // indirect
	github.com/go-stack/stack v1.8.0 // indirect
	github.com/golang/snappy v0.0.1 // indirect
	github.com/gorilla/mux v1.8.0
	github.com/hashicorp/go-version v1.3.0 // indirect
	github.com/hashicorp/logutils v0.0.0-20150609070431-0dc08b1671f3 // indirect
	github.com/klauspost/compress v1.13.6 // indirect
	github.com/pkg/errors v0.9.1 // indirect
	github.com/pmezard/go-difflib v1.0.0 // indirect
	github.com/stretchr/objx v0.1.0 // indirect
	github.com/xdg-go/pbkdf2 v1.0.0 // indirect
	github.com/xdg-go/scram v1.0.2 // indirect
	github.com/xdg-go/stringprep v1.0.2 // indirect
	github.com/youmark/pkcs8 v0.0.0-20181117223130-1be2e3e5546d // indirect
	go.uber.org/atomic v1.7.0 // indirect
	go.uber.org/multierr v1.6.0 // indirect
	golang.org/x/crypto v0.0.0-20201216223049-8b5274cf687f // indirect
	golang.org/x/sync v0.0.0-20210220032951-036812b2e83c // indirect
	golang.org/x/text v0.3.5 // indirect
	gopkg.in/yaml.v3 v3.0.0-20210107192922-496545a6307b // indirect
)
